…
##### 最大借款金额

```
## # A tibble: 56 x 30
##    ListingId 借款金额 借款期限 借款利率 借款成功日期 初始评级 借款类型
##        <dbl>    <dbl> <ord>       <dbl> <date>       <ord>    <fct>   
##  1   3097341   500000 1             6.5 2015-07-06   A        其他    
##  2   3220201   500000 1            10   2015-07-15   A        其他    
##  3   3250931   500000 1            10   2015-07-17   A        其他    
##  4   3616281   500000 3            10   2015-08-12   A        其他    
##  5   3628471   500000 3            10   2015-08-12   A        其他    
##  6   3659691   500000 2            10   2015-08-14   A        其他    
##  7   3840301   500000 1            10   2015-08-25   A        其他    
##  8   3981541   500000 1             9   2015-09-02   A        其他    
##  9   4429331   500000 6            14   2015-09-25   B        电商    
## 10   4434731   500000 6            14   2015-09-28   B        电商    
## # ... with 46 more rows, and 23 more variables: 是否首标 <fct>,
## #   年龄 <dbl>, 性别 <fct>, 手机认证 <fct>, 户口认证 <fct>,
## #   视频认证 <fct>, 学历认证 <fct>, 征信认证 <fct>, 淘宝认证 <fct>,
## #   历史成功借款次数 <dbl>, 历史成功借款金额 <dbl>, 总待还本金 <dbl>,
## #   历史正常还款期数 <dbl>, 历史逾期还款期数 <dbl>, 总认证数 <dbl>,
## #   历史单笔借款均值 <dbl>, 逾期率 <dbl>, OverdueRate <dbl>,
## #   PayoffRate <dbl>, PayoffCate <ord>, Unpaid_Total <dbl>,
## #   UnpaidCate <ord>, OldLoanPCT <dbl>
```
…
